<svg xmlns="http://www.w3.org/2000/svg" width="145.354" height="25" viewBox="0 0 145.354 25">
  <g id="Group" transform="translate(136.016 180.107)">
    <g id="logo-mark" transform="translate(-136.016 -176.721)">
      <path id="Path" d="M-118.67-164.542a22.615,22.615,0,0,1-7.669-1.826A19.839,19.839,0,0,1-131.655-170c-.71,2.11-.528,3.774.588,5.032-.588,2.556-.041,4.342,1.684,5.356.487,3.084,2.435,4.484,5.8,4.159a19.9,19.9,0,0,0,4.89-1.156v-7.933Z" transform="translate(132.875 170.804)" fill="#f8f8f8" fill-rule="evenodd"/>
      <path id="Path_00000112597677344380901520000002788996037437642411_" d="M-130.824-169.33c-.243-.2-.487-.446-.73-.67-.71,2.11-.527,3.774.588,5.032-.588,2.556-.041,4.342,1.684,5.356.487,3.084,2.435,4.484,5.8,4.159a19.9,19.9,0,0,0,4.89-1.156v-.771a23.533,23.533,0,0,1-3.753.771c-3.368.325-5.316-1.075-5.8-4.159-1.725-1.014-2.293-2.8-1.684-5.356a4.063,4.063,0,0,1-.994-3.206Z" transform="translate(132.795 170.804)" fill="#f1f1f1" fill-rule="evenodd"/>
      <path id="Path_00000048491292341808586250000003558688203770438334_" d="M-52-164.542a22.824,22.824,0,0,0,7.669-1.826A18.993,18.993,0,0,0-39.056-170c.73,2.11.568,3.774-.568,5.032.588,2.556.041,4.342-1.684,5.356-.487,3.084-2.435,4.484-5.8,4.159A19.9,19.9,0,0,1-52-156.609Z" transform="translate(69.046 170.804)" fill="#f8f8f8" fill-rule="evenodd"/>
      <path id="Path_00000049207500991079635550000016758915981057947809_" d="M-39.766-169.33c.243-.2.487-.446.71-.67.73,2.11.568,3.774-.568,5.032.588,2.556.041,4.342-1.684,5.356-.487,3.084-2.435,4.484-5.8,4.159A19.9,19.9,0,0,1-52-156.609v-.771a22.465,22.465,0,0,0,3.774.771c3.348.325,5.316-1.075,5.8-4.159,1.684-1.014,2.252-2.8,1.684-5.356a4.205,4.205,0,0,0,.974-3.206Z" transform="translate(69.046 170.804)" fill="#f1f1f1" fill-rule="evenodd"/>
      <path id="Path_00000154383511783411379240000004875506351833420978_" d="M-131.935-166.056a1.019,1.019,0,0,1-.243-.041c-3.429-1.4-4.585-3.977-3.368-7.466a.578.578,0,0,1,.446-.385.641.641,0,0,1,.568.162,19.329,19.329,0,0,0,5.275,3.571.608.608,0,0,1,.284.812.608.608,0,0,1-.812.284,21.484,21.484,0,0,1-4.869-3.124c-.548,2.394.406,4.017,2.942,5.032a.6.6,0,0,1,.325.791A.576.576,0,0,1-131.935-166.056Z" transform="translate(136.016 173.961)" fill="#2f2f2f"/>
      <path id="Path_00000102530193352415746920000007679869835371791781_" d="M-127.528-141.687a.257.257,0,0,1-.122-.02A5.493,5.493,0,0,1-131.3-143.9a5.874,5.874,0,0,1-.467-4.626.584.584,0,0,1,.71-.446.584.584,0,0,1,.446.71,4.8,4.8,0,0,0,.325,3.713,4.242,4.242,0,0,0,2.9,1.684.6.6,0,0,1,.467.71A.672.672,0,0,1-127.528-141.687Z" transform="translate(132.827 154.055)" fill="#2f2f2f"/>
      <path id="Path_00000093152613182630990270000010567073688528513185_" d="M-116.44-116.559c-3.165,0-5.092-1.643-5.6-4.788a.6.6,0,0,1,.507-.69.6.6,0,0,1,.69.507c.446,2.82,2.13,4,5.234,3.713a.611.611,0,0,1,.67.548.6.6,0,0,1-.548.649A7.768,7.768,0,0,1-116.44-116.559Z" transform="translate(124.883 132.579)" fill="#2f2f2f"/>
      <path id="Path_00000100384954318897007140000016885961101438680458_" d="M-15.05-166.056a.624.624,0,0,1-.568-.365.613.613,0,0,1,.325-.791c2.556-1.035,3.49-2.658,2.922-5.032a20.717,20.717,0,0,1-4.849,3.124.608.608,0,0,1-.812-.284.608.608,0,0,1,.284-.812,18.786,18.786,0,0,0,5.234-3.571.641.641,0,0,1,.568-.162.611.611,0,0,1,.446.386c1.258,3.49.1,6.066-3.348,7.466A.509.509,0,0,1-15.05-166.056Z" transform="translate(42.016 173.961)" fill="#2f2f2f"/>
      <path id="Path_00000103225055971952201200000017517063073669030807_" d="M-12.374-141.766a.585.585,0,0,1-.568-.487.613.613,0,0,1,.467-.71,4.242,4.242,0,0,0,2.9-1.684,4.8,4.8,0,0,0,.3-3.713.575.575,0,0,1,.446-.71.584.584,0,0,1,.71.446A6.064,6.064,0,0,1-8.58-144a5.436,5.436,0,0,1-3.652,2.211A.4.4,0,0,1-12.374-141.766Z" transform="translate(37.921 154.135)" fill="#2f2f2f"/>
      <path id="Path_00000036951657651296752650000017136074577992486819_" d="M-30.515-116.479c-.3,0-.629-.02-.954-.041a.607.607,0,0,1-.548-.649.626.626,0,0,1,.67-.548c3.1.284,4.788-.893,5.234-3.713a.611.611,0,0,1,.69-.507.627.627,0,0,1,.507.69A5.164,5.164,0,0,1-30.515-116.479Z" transform="translate(53.12 132.499)" fill="#2f2f2f"/>
      <g id="g18" transform="translate(6.07 2.001)">
        <path id="path14" d="M-85.9-161H-102.43a.628.628,0,0,0-.67.67v13.9a.628.628,0,0,0,.67.67H-85.9a.628.628,0,0,0,.67-.67v-13.9A.628.628,0,0,0-85.9-161Z" transform="translate(103.709 161.629)" fill="#ff6363"/>
        <path id="path16" d="M-88.287-147.646h-16.535a1.236,1.236,0,0,1-1.278-1.278v-13.9a1.236,1.236,0,0,1,1.278-1.278h16.535a1.236,1.236,0,0,1,1.278,1.278v13.9A1.225,1.225,0,0,1-88.287-147.646Zm-16.556-1.217h16.637v-14h-16.637v13.938q-.03.061,0,.061Z" transform="translate(106.1 164.1)" fill="#2f2f2f"/>
      </g>
      <g id="g23" transform="translate(11.872 2.122)">
        <rect id="Rectangle_00000080200784011017713500000017749859513342612880_" width="5.884" height="5.072" transform="translate(0.71 0.71)" fill="#e34343"/>
        <path id="path21" d="M-70.2-157.008h-7.3V-163.5h7.3Zm-5.884-1.42h4.464v-3.652H-76.08Z" transform="translate(77.5 163.5)" fill="#2f2f2f"/>
      </g>
    </g>
    <text id="ShipDelight" transform="translate(-93.662 -162.107)" fill="#3a3a3a" font-size="18" font-family="Avenir-Heavy, Avenir" font-weight="800" letter-spacing="0.02em"><tspan x="0" y="0">ShipDelight</tspan></text>
  </g>
</svg>
